
{
  "tracks": {
    "href": "https://api.spotify.com/v1/search?query=All+the+Small+Things&type=track&offset=0&limit=1",
    "items": [
      {
        "album": {
          "album_type": "album",
          "artists": [
            {
              "external_urls": {
                "spotify": "https://open.spotify.com/artist/6FBDaR13swtiWwGhX1WQsP"
              },
              "href": "https://api.spotify.com/v1/artists/6FBDaR13swtiWwGhX1WQsP",
              "id": "6FBDaR13swtiWwGhX1WQsP",
              "name": "blink-182",
              "type": "artist",
              "uri": "spotify:artist:6FBDaR13swtiWwGhX1WQsP"
            }
          ],
          "available_markets": [
            "AD",
            "AR",
            "AT",
            "AU",
            "BE",
            "BG",
            "BO",
            "BR",
            "CA",
            "CH",
            "CL",
            "CO",
            "CR",
            "CY",
            "CZ",
            "DE",
            "DK",
            "DO",
            "EC",
            "EE",
            "ES",
            "FI",
            "FR",
            "GB",
            "GR",
            "GT",
            "HK",
            "HN",
            "HU",
            "ID",
            "IE",
            "IL",
            "IN",
            "IS",
            "IT",
            "JP",
            "LI",
            "LT",
            "LU",
            "LV",
            "MC",
            "MT",
            "MX",
            "MY",
            "NI",
            "NL",
            "NO",
            "NZ",
            "PA",
            "PE",
            "PH",
            "PL",
            "PT",
            "PY",
            "RO",
            "SE",
            "SG",
            "SK",
            "SV",
            "TH",
            "TR",
            "TW",
            "US",
            "UY",
            "VN",
            "ZA"
          ],
          "external_urls": {
            "spotify": "https://open.spotify.com/album/5qt11cWjSs5Gbqj2Wyfu38"
          },
          "href": "https://api.spotify.com/v1/albums/5qt11cWjSs5Gbqj2Wyfu38",
          "id": "5qt11cWjSs5Gbqj2Wyfu38",
          "images": [
            {
              "height": 636,
              "url": "https://i.scdn.co/image/13f894c1300cbdda027ff948ee963640c5126d29",
              "width": 640
            },
            {
              "height": 298,
              "url": "https://i.scdn.co/image/13df38bffb65d58fde5341184282a908e49689d4",
              "width": 300
            },
            {
              "height": 64,
              "url": "https://i.scdn.co/image/9c233fb13e1758e6035bc9e19d77cda1b18fe84e",
              "width": 64
            }
          ],
          "name": "Enema Of The State",
          "release_date": "1999-01-01",
          "release_date_precision": "day",
          "total_tracks": 12,
          "type": "album",
          "uri": "spotify:album:5qt11cWjSs5Gbqj2Wyfu38"
        },
        "artists": [
          {
            "external_urls": {
              "spotify": "https://open.spotify.com/artist/6FBDaR13swtiWwGhX1WQsP"
            },
            "href": "https://api.spotify.com/v1/artists/6FBDaR13swtiWwGhX1WQsP",
            "id": "6FBDaR13swtiWwGhX1WQsP",
            "name": "blink-182",
            "type": "artist",
            "uri": "spotify:artist:6FBDaR13swtiWwGhX1WQsP"
          }
        ],
        "available_markets": [
          "AD",
          "AR",
          "AT",
          "AU",
          "BE",
          "BG",
          "BO",
          "BR",
          "CA",
          "CH",
          "CL",
          "CO",
          "CR",
          "CY",
          "CZ",
          "DE",
          "DK",
          "DO",
          "EC",
          "EE",
          "ES",
          "FI",
          "FR",
          "GB",
          "GR",
          "GT",
          "HK",
          "HN",
          "HU",
          "ID",
          "IE",
          "IL",
          "IN",
          "IS",
          "IT",
          "JP",
          "LI",
          "LT",
          "LU",
          "LV",
          "MC",
          "MT",
          "MX",
          "MY",
          "NI",
          "NL",
          "NO",
          "NZ",
          "PA",
          "PE",
          "PH",
          "PL",
          "PT",
          "PY",
          "RO",
          "SE",
          "SG",
          "SK",
          "SV",
          "TH",
          "TR",
          "TW",
          "US",
          "UY",
          "VN",
          "ZA"
        ],
        "disc_number": 1,
        "duration_ms": 168000,
        "explicit": false,
        "external_ids": {
          "isrc": "USMC19959123"
        },
        "external_urls": {
          "spotify": "https://open.spotify.com/track/7yCPwWs66K8Ba5lFuU2bcx"
        },
        "href": "https://api.spotify.com/v1/tracks/7yCPwWs66K8Ba5lFuU2bcx",
        "id": "7yCPwWs66K8Ba5lFuU2bcx",
        "is_local": false,
        "name": "All The Small Things",
        "popularity": 80,
        "preview_url": null,
        "track_number": 8,
        "type": "track",
        "uri": "spotify:track:7yCPwWs66K8Ba5lFuU2bcx"
      }
    ],
    "limit": 1,
    "next": "https://api.spotify.com/v1/search?query=All+the+Small+Things&type=track&offset=1&limit=1",
    "offset": 0,
    "previous": null,
    "total": 449
  }
}